usbd_desc.c:221:11:USBD_HS_DeviceDescriptor	16	static
usbd_desc.c:234:11:USBD_HS_LangIDStrDescriptor	16	static
usbd_desc.c:247:11:USBD_HS_ProductStrDescriptor	16	static
usbd_desc.c:266:11:USBD_HS_ManufacturerStrDescriptor	16	static
usbd_desc.c:279:11:USBD_HS_SerialStrDescriptor	16	static
usbd_desc.c:300:11:USBD_HS_ConfigStrDescriptor	16	static
usbd_desc.c:319:11:USBD_HS_InterfaceStrDescriptor	16	static
usbd_desc.c:352:13:Get_SerialNum	24	static
usbd_desc.c:376:13:IntToUnicode	32	static
