main.c:95:5:main	16	static
main.c:181:6:SystemClock_Config	120	static
main.c:242:6:PeriphCommonClock_Config	200	static
main.c:286:13:MX_I2C3_Init	8	static
main.c:332:13:MX_RTC_Init	32	static
main.c:395:13:MX_SPI1_Init	8	static
main.c:443:13:MX_SPI2_Init	8	static
main.c:491:13:MX_SPI3_Init	8	static
main.c:539:13:MX_SPI4_Init	8	static
main.c:587:13:MX_SPI5_Init	8	static
main.c:635:13:MX_SPI6_Init	8	static
main.c:683:13:MX_TIM6_Init	24	static
main.c:721:13:MX_UART4_Init	8	static
main.c:769:13:MX_USART2_UART_Init	8	static
main.c:817:6:MX_GPIO_Init	64	static
main.c:934:6:Error_Handler	4	static,ignoring_inline_asm
